C:\Users\Diego\Desktop\demo-sbot-aws-lambda\src\main\java\com\tedregal\repository\EmployeeDao.java
C:\Users\Diego\Desktop\demo-sbot-aws-lambda\src\main\java\com\tedregal\domain\Employee.java
C:\Users\Diego\Desktop\demo-sbot-aws-lambda\src\main\java\com\tedregal\SpringBootAwsLambdaApplication.java
C:\Users\Diego\Desktop\demo-sbot-aws-lambda\src\main\java\com\tedregal\EmployeeHandler.java
